%YAML 1.1
%TAG !u! tag:unity3d.com,2011:
--- !u!1001 &5144674070187786743
PrefabInstance:
  m_ObjectHideFlags: 0
  serializedVersion: 2
  m_Modification:
    serializedVersion: 3
    m_TransformParent: {fileID: 0}
    m_Modifications:
    - target: {fileID: -8679921383154817045, guid: 918226e49946e4ffb968ed4d181f68d1,
        type: 3}
      propertyPath: m_LocalScale.x
      value: 0.48735
      objectReference: {fileID: 0}
    - target: {fileID: -8679921383154817045, guid: 918226e49946e4ffb968ed4d181f68d1,
        type: 3}
      propertyPath: m_LocalScale.y
      value: 0.48735
      objectReference: {fileID: 0}
    - target: {fileID: -8679921383154817045, guid: 918226e49946e4ffb968ed4d181f68d1,
        type: 3}
      propertyPath: m_LocalScale.z
      value: 0.48735
      objectReference: {fileID: 0}
    - target: {fileID: -8679921383154817045, guid: 918226e49946e4ffb968ed4d181f68d1,
        type: 3}
      propertyPath: m_LocalPosition.x
      value: 0.383
      objectReference: {fileID: 0}
    - target: {fileID: -8679921383154817045, guid: 918226e49946e4ffb968ed4d181f68d1,
        type: 3}
      propertyPath: m_LocalPosition.y
      value: 0.191
      objectReference: {fileID: 0}
    - target: {fileID: -8679921383154817045, guid: 918226e49946e4ffb968ed4d181f68d1,
        type: 3}
      propertyPath: m_LocalPosition.z
      value: 1.979
      objectReference: {fileID: 0}
    - target: {fileID: -8679921383154817045, guid: 918226e49946e4ffb968ed4d181f68d1,
        type: 3}
      propertyPath: m_LocalRotation.w
      value: 1
      objectReference: {fileID: 0}
    - target: {fileID: -8679921383154817045, guid: 918226e49946e4ffb968ed4d181f68d1,
        type: 3}
      propertyPath: m_LocalRotation.x
      value: 0
      objectReference: {fileID: 0}
    - target: {fileID: -8679921383154817045, guid: 918226e49946e4ffb968ed4d181f68d1,
        type: 3}
      propertyPath: m_LocalRotation.y
      value: -0
      objectReference: {fileID: 0}
    - target: {fileID: -8679921383154817045, guid: 918226e49946e4ffb968ed4d181f68d1,
        type: 3}
      propertyPath: m_LocalRotation.z
      value: -0
      objectReference: {fileID: 0}
    - target: {fileID: -8679921383154817045, guid: 918226e49946e4ffb968ed4d181f68d1,
        type: 3}
      propertyPath: m_LocalEulerAnglesHint.x
      value: 0
      objectReference: {fileID: 0}
    - target: {fileID: -8679921383154817045, guid: 918226e49946e4ffb968ed4d181f68d1,
        type: 3}
      propertyPath: m_LocalEulerAnglesHint.y
      value: 0
      objectReference: {fileID: 0}
    - target: {fileID: -8679921383154817045, guid: 918226e49946e4ffb968ed4d181f68d1,
        type: 3}
      propertyPath: m_LocalEulerAnglesHint.z
      value: 0
      objectReference: {fileID: 0}
    - target: {fileID: 919132149155446097, guid: 918226e49946e4ffb968ed4d181f68d1,
        type: 3}
      propertyPath: m_Name
      value: grass (8) Variant
      objectReference: {fileID: 0}
    m_RemovedComponents: []
    m_RemovedGameObjects: []
    m_AddedGameObjects: []
    m_AddedComponents: []
  m_SourcePrefab: {fileID: 100100000, guid: 918226e49946e4ffb968ed4d181f68d1, type: 3}
